[
  {
    "id": 3998,
    "army": "Ariadna",
    "army_id": 3999,
    "name": "Caledonian Highlander Army",
    "legacy_name": "Caledonian Highlander Army",
    "abbr": "Caledonian Army",
    "units": [
      {
        "comment": "Caledonian Volunteers",
        "id": 3022,
        "ava": "T",
        "childs": [
          {
            "comment": "LT is 0 SWC in CHA",
            "id": 1,
            "swc": "0"
          }
        ],
        "linkable": true,
        "note": "Fireteam: Core may include 1 3rd Grey Rifle<br>Options with Inferior Infiltration may not join a Fireteam"
      },
      {
        "comment": "Highlander Caterans",
        "id": 3025,
        "ava": "4"
      },
      {
        "comment": "Scot (2nd Battalion)",
        "id": 3035,
        "ava": "5"
      },
      {
        "comment": "Scot (1st Battalion)",
        "id": 3036,
        "ava": "5",
        "linkable": true
      },
      {
        "comment": "3rd Highlander Greys",
        "id": 3019,
        "ava": "5",
        "linkable": true
      },
      {
        "comment": "Caledonian Mormaers",
        "id": 3021,
        "ava": "3",
        "note": "Fireteam: Haris may include 1 3rd Grey Rifle"
      },
      {
        "comment": "S.A.S.",
        "id": 3011,
        "ava": "4"
      },
      {
        "comment": "9th Wulver Grenadiers",
        "id": 3020,
        "ava": "4",
        "linkable": true
      },
      {
        "comment": "45th Highlanders",
        "id": 3013,
        "ava": "T",
        "linkable": true,
        "note": "Fireteam: Core with William Wallace Lieutenant"
      },
      {
        "comment": "2nd Irregular Cameronians Reg.",
        "id": 3018,
        "ava": "3"
      },
      {
        "comment": "Traktor Mul, Artillery and Support Regiment",
        "id": 3028,
        "ava": "2"
      },
      {
        "comment": "112, Emergency Service",
        "id": 3017,
        "ava": "2"
      },
      {
        "comment": "Dozers, Field Engineers",
        "id": 3024,
        "ava": "2"
      },
      {
        "comment": "Uxia McNeill",
        "id": 3033,
        "ava": "1"
      },
      {
        "comment": "William Wallace",
        "id": 3029,
        "ava": "1",
        "linkable": true,
        "note": "Lieutenant may join any Fireteam: Core or Haris"
      },
      {
        "comment": "Intel Spec-Ops",
        "id": 3040,
        "ava": "1"
      },
      {
        "comment": "Volunteer Intel Isobel McGregor",
        "id": 3032,
        "ava": "1",
        "linkable": true,
        "note": "Counts as Volunteer for Fireteam composition"
      },
      {
        "comment": "McMurrough",
        "id": 9005,
        "ava": "1"
      },
      {
        "comment": "Warcor",
        "id": 9017,
        "ava": "1"
      },
      {
        "comment": "Wardrivers",
        "id": 9021,
        "ava": "1"
      }
    ]
  }
]
