[
  {
    "id": 9998,
    "army": "Non-Aligned Armies",
    "army_id": 9999,
    "name": "Druze Bayram Security",
    "units": [
      {
        "comment": "Druze Shock Teams (special version)",
        "id": 9031,
        "linkable": true,
        "note": "Fireteam: Core may include 1 Brawler and/or 1 Clipper Dronbot<br>Special Fireteam: Core of 2 Druze and up to 3 Brawlers"
      },
      {
        "comment": "Security Chief Arslan",
        "id": 9032,
        "linkable": true,
        "note": "Counts as Druze for Fireteam composition"
      },
      {
        "comment": "Authorized Bounty Hunters (special version)",
        "id": 9033
      },
      {
        "comment": "Bashi Bazouk (special version)",
        "id": 9034
      },
      {
        "comment": "Anaconda",
        "id": 9016,
        "classification": "Mechanized"
      },
      {
        "comment": "Hunzakuts",
        "id": 4011,
        "ava": "2"
      },
      {
        "comment": "Armbots: Peacemakers",
        "id": 1041,
        "ava": "2"
      },
      {
        "comment": "Pathfinder Dronbot",
        "id": 1018,
        "ava": "3"
      },
      {
        "comment": "Sierra Dronbot",
        "id": 1019,
        "ava": "1"
      },
      {
        "comment": "Clipper Dronbot (special)",
        "id": 9035
      },
      {
        "comment": "Fugazi Dronbot",
        "id": 1021,
        "ava": "2"
      },
      {
        "comment": "Nasmat Remotes",
        "id": 4034,
        "ava": "2"
      },
      {
        "comment": "Kameel Remotes",
        "id": 4033,
        "ava": "2"
      },
      {
        "comment": "Brawlers, Mercenary Enforcers",
        "id": 9036,
        "linkable": true,
        "note": "Special Fireteam: Core of 2 Druze and up to 3 Brawlers"
      },
      {
        "comment": "Valerya Gromoz, Mercenary Hacker",
        "id": 9012,
        "linkable": true,
        "note": "Can join any fireteam"
      },
      {
        "comment": "Saito Tōgan (special)",
        "id": 9037
      },
      {
        "comment": "Scarface & Cordelia (special)",
        "id": 9038,
        "note": "Special Fireteam: Duo of Scarface and Cordelia"
      },
      {
        "comment": "Armand 'Le Muet'",
        "id": 9022
      },
      {
        "comment": "Warcor",
        "id": 9017,
        "ava": "1"
      },
      {
        "comment": "Brawler Spec-Ops",
        "id": 9039,
        "ava": "1"
      }
    ]
  }
]
